%YAML 1.1
%TAG !u! tag:unity3d.com,2011:
--- !u!159 &1
EditorSettings:
  m_ObjectHideFlags: 0
  serializedVersion: 3
  m_ExternalVersionControlSupport: Hidden Meta Files
  m_SerializationMode: 2
  m_WebSecurityEmulationEnabled: 0
  m_WebSecurityEmulationHostUrl: http://www.mydomain.com/mygame.unity3d
  m_DefaultBehaviorMode: 0
  m_SpritePackerMode: 80
